[
	{"StartGroup": "A", "Depth": 40,  "AdjMaxDiveTime": 123, "ResidualNitroTime": 7  },
	{"StartGroup": "A", "Depth": 50,  "AdjMaxDiveTime": 74,  "ResidualNitroTime": 6  },
	{"StartGroup": "A", "Depth": 60,  "AdjMaxDiveTime": 50,  "ResidualNitroTime": 5  },
	{"StartGroup": "A", "Depth": 70,  "AdjMaxDiveTime": 41,  "ResidualNitroTime": 4  },
	{"StartGroup": "A", "Depth": 80,  "AdjMaxDiveTime": 31,  "ResidualNitroTime": 4  },
	{"StartGroup": "A", "Depth": 90,  "AdjMaxDiveTime": 22,  "ResidualNitroTime": 3  },
	{"StartGroup": "A", "Depth": 100, "AdjMaxDiveTime": 19,  "ResidualNitroTime": 3  },
	{"StartGroup": "A", "Depth": 110, "AdjMaxDiveTime": 12,  "ResidualNitroTime": 3  },
	{"StartGroup": "A", "Depth": 120, "AdjMaxDiveTime": 9,   "ResidualNitroTime": 3  },
	{"StartGroup": "A", "Depth": 130, "AdjMaxDiveTime": 5,   "ResidualNitroTime": 3  },
	{"StartGroup": "B", "Depth": 40,  "AdjMaxDiveTime": 113, "ResidualNitroTime": 17 },
	{"StartGroup": "B", "Depth": 50,  "AdjMaxDiveTime": 67,  "ResidualNitroTime": 13 },
	{"StartGroup": "B", "Depth": 60,  "AdjMaxDiveTime": 44,  "ResidualNitroTime": 11 },
	{"StartGroup": "B", "Depth": 70,  "AdjMaxDiveTime": 36,  "ResidualNitroTime": 9  },
	{"StartGroup": "B", "Depth": 80,  "AdjMaxDiveTime": 27,  "ResidualNitroTime": 8  },
	{"StartGroup": "B", "Depth": 90,  "AdjMaxDiveTime": 18,  "ResidualNitroTime": 7  },
	{"StartGroup": "B", "Depth": 100, "AdjMaxDiveTime": 15,  "ResidualNitroTime": 7  },
	{"StartGroup": "B", "Depth": 110, "AdjMaxDiveTime": 9,   "ResidualNitroTime": 6  },
	{"StartGroup": "B", "Depth": 120, "AdjMaxDiveTime": 6,   "ResidualNitroTime": 6  },
	{"StartGroup": "B", "Depth": 130, "AdjMaxDiveTime": 0,   "ResidualNitroTime": 6  },
	{"StartGroup": "C", "Depth": 40,  "AdjMaxDiveTime": 105, "ResidualNitroTime": 25 },
	{"StartGroup": "C", "Depth": 50,  "AdjMaxDiveTime": 59,  "ResidualNitroTime": 21 },
	{"StartGroup": "C", "Depth": 60,  "AdjMaxDiveTime": 38,  "ResidualNitroTime": 17 },
	{"StartGroup": "C", "Depth": 70,  "AdjMaxDiveTime": 30,  "ResidualNitroTime": 15 },
	{"StartGroup": "C", "Depth": 80,  "AdjMaxDiveTime": 22,  "ResidualNitroTime": 13 },
	{"StartGroup": "C", "Depth": 90,  "AdjMaxDiveTime": 14,  "ResidualNitroTime": 11 },
	{"StartGroup": "C", "Depth": 100, "AdjMaxDiveTime": 12,  "ResidualNitroTime": 10 },
	{"StartGroup": "C", "Depth": 110, "AdjMaxDiveTime": 5,   "ResidualNitroTime": 10 },
	{"StartGroup": "C", "Depth": 120, "AdjMaxDiveTime": 0,   "ResidualNitroTime": 9  },
	{"StartGroup": "C", "Depth": 130, "AdjMaxDiveTime": 0,   "ResidualNitroTime": 8  },
	{"StartGroup": "D", "Depth": 40,  "AdjMaxDiveTime": 93,  "ResidualNitroTime": 37 },
	{"StartGroup": "D", "Depth": 50,  "AdjMaxDiveTime": 51,  "ResidualNitroTime": 29 },
	{"StartGroup": "D", "Depth": 60,  "AdjMaxDiveTime": 31,  "ResidualNitroTime": 24 },
	{"StartGroup": "D", "Depth": 70,  "AdjMaxDiveTime": 25,  "ResidualNitroTime": 20 },
	{"StartGroup": "D", "Depth": 80,  "AdjMaxDiveTime": 17,  "ResidualNitroTime": 18 },
	{"StartGroup": "D", "Depth": 90,  "AdjMaxDiveTime": 9,   "ResidualNitroTime": 16 },
	{"StartGroup": "D", "Depth": 100, "AdjMaxDiveTime": 8,   "ResidualNitroTime": 14 },
	{"StartGroup": "D", "Depth": 110, "AdjMaxDiveTime": 0,   "ResidualNitroTime": 13 },
	{"StartGroup": "D", "Depth": 120, "AdjMaxDiveTime": 0,   "ResidualNitroTime": 12 },
	{"StartGroup": "D", "Depth": 130, "AdjMaxDiveTime": 0,   "ResidualNitroTime": 11 },
	{"StartGroup": "E", "Depth": 40,  "AdjMaxDiveTime": 81,  "ResidualNitroTime": 49 },
	{"StartGroup": "E", "Depth": 50,  "AdjMaxDiveTime": 42,  "ResidualNitroTime": 38 },
	{"StartGroup": "E", "Depth": 60,  "AdjMaxDiveTime": 25,  "ResidualNitroTime": 30 },
	{"StartGroup": "E", "Depth": 70,  "AdjMaxDiveTime": 19,  "ResidualNitroTime": 26 },
	{"StartGroup": "E", "Depth": 80,  "AdjMaxDiveTime": 12,  "ResidualNitroTime": 23 },
	{"StartGroup": "E", "Depth": 90,  "AdjMaxDiveTime": 5,   "ResidualNitroTime": 20 },
	{"StartGroup": "E", "Depth": 100, "AdjMaxDiveTime": 4,   "ResidualNitroTime": 18 },
	{"StartGroup": "E", "Depth": 110, "AdjMaxDiveTime": 0,   "ResidualNitroTime": 16 },
	{"StartGroup": "E", "Depth": 120, "AdjMaxDiveTime": 0,   "ResidualNitroTime": 15 },
	{"StartGroup": "E", "Depth": 130, "AdjMaxDiveTime": 0,   "ResidualNitroTime": 13 },
	{"StartGroup": "F", "Depth": 40,  "AdjMaxDiveTime": 69,  "ResidualNitroTime": 61 },
	{"StartGroup": "F", "Depth": 50,  "AdjMaxDiveTime": 33,  "ResidualNitroTime": 47 },
	{"StartGroup": "F", "Depth": 60,  "AdjMaxDiveTime": 19,  "ResidualNitroTime": 36 },
	{"StartGroup": "F", "Depth": 70,  "AdjMaxDiveTime": 14,  "ResidualNitroTime": 31 },
	{"StartGroup": "F", "Depth": 80,  "AdjMaxDiveTime": 7,   "ResidualNitroTime": 28 },
	{"StartGroup": "F", "Depth": 90,  "AdjMaxDiveTime": 0,   "ResidualNitroTime": 24 },
	{"StartGroup": "F", "Depth": 100, "AdjMaxDiveTime": 0,   "ResidualNitroTime": 22 },
	{"StartGroup": "F", "Depth": 110, "AdjMaxDiveTime": 0,   "ResidualNitroTime": 20 },
	{"StartGroup": "F", "Depth": 120, "AdjMaxDiveTime": 0,   "ResidualNitroTime": 18 },
	{"StartGroup": "F", "Depth": 130, "AdjMaxDiveTime": 0,   "ResidualNitroTime": 16 },
	{"StartGroup": "G", "Depth": 40,  "AdjMaxDiveTime": 57,  "ResidualNitroTime": 73 },
	{"StartGroup": "G", "Depth": 50,  "AdjMaxDiveTime": 24,  "ResidualNitroTime": 56 },
	{"StartGroup": "G", "Depth": 60,  "AdjMaxDiveTime": 11,  "ResidualNitroTime": 44 },
	{"StartGroup": "G", "Depth": 70,  "AdjMaxDiveTime": 8,   "ResidualNitroTime": 37 },
	{"StartGroup": "G", "Depth": 80,  "AdjMaxDiveTime": 0,   "ResidualNitroTime": 32 },
	{"StartGroup": "G", "Depth": 90,  "AdjMaxDiveTime": 0,   "ResidualNitroTime": 29 },
	{"StartGroup": "G", "Depth": 100, "AdjMaxDiveTime": 0,   "ResidualNitroTime": 26 },
	{"StartGroup": "G", "Depth": 110, "AdjMaxDiveTime": 0,   "ResidualNitroTime": 24 },
	{"StartGroup": "G", "Depth": 120, "AdjMaxDiveTime": 0,   "ResidualNitroTime": 21 },
	{"StartGroup": "G", "Depth": 130, "AdjMaxDiveTime": 0,   "ResidualNitroTime": 19 },
	{"StartGroup": "H", "Depth": 40,  "AdjMaxDiveTime": 43,  "ResidualNitroTime": 87 },
	{"StartGroup": "H", "Depth": 50,  "AdjMaxDiveTime": 14,  "ResidualNitroTime": 66 },
	{"StartGroup": "H", "Depth": 60,  "AdjMaxDiveTime": 0,   "ResidualNitroTime": 52 },
	{"StartGroup": "H", "Depth": 70,  "AdjMaxDiveTime": 0,   "ResidualNitroTime": 43 },
	{"StartGroup": "H", "Depth": 80,  "AdjMaxDiveTime": 0,   "ResidualNitroTime": 38 },
	{"StartGroup": "H", "Depth": 90,  "AdjMaxDiveTime": 0,   "ResidualNitroTime": 33 },
	{"StartGroup": "H", "Depth": 100, "AdjMaxDiveTime": 0,   "ResidualNitroTime": 30 },
	{"StartGroup": "H", "Depth": 110, "AdjMaxDiveTime": 0,   "ResidualNitroTime": 27 },
	{"StartGroup": "H", "Depth": 120, "AdjMaxDiveTime": 0,   "ResidualNitroTime": 25 },
	{"StartGroup": "H", "Depth": 130, "AdjMaxDiveTime": 0,   "ResidualNitroTime": 22 },
	{"StartGroup": "I", "Depth": 40,  "AdjMaxDiveTime": 29,  "ResidualNitroTime": 101},
	{"StartGroup": "I", "Depth": 50,  "AdjMaxDiveTime": 4,   "ResidualNitroTime": 76 },
	{"StartGroup": "I", "Depth": 60,  "AdjMaxDiveTime": 0,   "ResidualNitroTime": 61 },
	{"StartGroup": "I", "Depth": 70,  "AdjMaxDiveTime": 0,   "ResidualNitroTime": 50 },
	{"StartGroup": "I", "Depth": 80,  "AdjMaxDiveTime": 0,   "ResidualNitroTime": 43 },
	{"StartGroup": "I", "Depth": 90,  "AdjMaxDiveTime": 0,   "ResidualNitroTime": 38 },
	{"StartGroup": "I", "Depth": 100, "AdjMaxDiveTime": 0,   "ResidualNitroTime": 34 },
	{"StartGroup": "I", "Depth": 110, "AdjMaxDiveTime": 0,   "ResidualNitroTime": 31 },
	{"StartGroup": "I", "Depth": 120, "AdjMaxDiveTime": 0,   "ResidualNitroTime": 28 },
	{"StartGroup": "I", "Depth": 130, "AdjMaxDiveTime": 0,   "ResidualNitroTime": 25 },
	{"StartGroup": "J", "Depth": 40,  "AdjMaxDiveTime": 14,  "ResidualNitroTime": 116},
	{"StartGroup": "J", "Depth": 50,  "AdjMaxDiveTime": 0,   "ResidualNitroTime": 87 },
	{"StartGroup": "J", "Depth": 60,  "AdjMaxDiveTime": 0,   "ResidualNitroTime": 70 },
	{"StartGroup": "J", "Depth": 70,  "AdjMaxDiveTime": 0,   "ResidualNitroTime": 57 },
	{"StartGroup": "J", "Depth": 80,  "AdjMaxDiveTime": 0,   "ResidualNitroTime": 48 },
	{"StartGroup": "J", "Depth": 90,  "AdjMaxDiveTime": 0,   "ResidualNitroTime": 43 },
	{"StartGroup": "J", "Depth": 100, "AdjMaxDiveTime": 0,   "ResidualNitroTime": 38 },
	{"StartGroup": "J", "Depth": 110, "AdjMaxDiveTime": 0,   "ResidualNitroTime": -1 },
	{"StartGroup": "J", "Depth": 120, "AdjMaxDiveTime": 0,   "ResidualNitroTime": -1 },
	{"StartGroup": "J", "Depth": 130, "AdjMaxDiveTime": 0,   "ResidualNitroTime": -1 },
	{"StartGroup": "K", "Depth": 40,  "AdjMaxDiveTime": 0,   "ResidualNitroTime": 138},
	{"StartGroup": "K", "Depth": 50,  "AdjMaxDiveTime": 0,   "ResidualNitroTime": 99 },
	{"StartGroup": "K", "Depth": 60,  "AdjMaxDiveTime": 0,   "ResidualNitroTime": 79 },
	{"StartGroup": "K", "Depth": 70,  "AdjMaxDiveTime": 0,   "ResidualNitroTime": 64 },
	{"StartGroup": "K", "Depth": 80,  "AdjMaxDiveTime": 0,   "ResidualNitroTime": 54 },
	{"StartGroup": "K", "Depth": 90,  "AdjMaxDiveTime": 0,   "ResidualNitroTime": 47 },
	{"StartGroup": "K", "Depth": 100, "AdjMaxDiveTime": 0,   "ResidualNitroTime": -1 },
	{"StartGroup": "K", "Depth": 110, "AdjMaxDiveTime": 0,   "ResidualNitroTime": -1 },
	{"StartGroup": "K", "Depth": 120, "AdjMaxDiveTime": 0,   "ResidualNitroTime": -1 },
	{"StartGroup": "K", "Depth": 130, "AdjMaxDiveTime": 0,   "ResidualNitroTime": -1 },
	{"StartGroup": "L", "Depth": 40,  "AdjMaxDiveTime": 0,   "ResidualNitroTime": 161},
	{"StartGroup": "L", "Depth": 50,  "AdjMaxDiveTime": 0,   "ResidualNitroTime": 111},
	{"StartGroup": "L", "Depth": 60,  "AdjMaxDiveTime": 0,   "ResidualNitroTime": 88 },
	{"StartGroup": "L", "Depth": 70,  "AdjMaxDiveTime": 0,   "ResidualNitroTime": 72 },
	{"StartGroup": "L", "Depth": 80,  "AdjMaxDiveTime": 0,   "ResidualNitroTime": 61 },
	{"StartGroup": "L", "Depth": 90,  "AdjMaxDiveTime": 0,   "ResidualNitroTime": 53 },
	{"StartGroup": "L", "Depth": 100, "AdjMaxDiveTime": 0,   "ResidualNitroTime": -1 },
	{"StartGroup": "L", "Depth": 110, "AdjMaxDiveTime": 0,   "ResidualNitroTime": -1 },
	{"StartGroup": "L", "Depth": 120, "AdjMaxDiveTime": 0,   "ResidualNitroTime": -1 },
	{"StartGroup": "L", "Depth": 130, "AdjMaxDiveTime": 0,   "ResidualNitroTime": -1 }
]