[
		{"Group": "A", "Depth": 35 , "DecompTime": 0 , "Duration": 10},
		{"Group": "A", "Depth": 40 , "DecompTime": 0 , "Duration": 9 },
		{"Group": "A", "Depth": 50 , "DecompTime": 0 , "Duration": 7 },
		{"Group": "A", "Depth": 60 , "DecompTime": 0 , "Duration": 6 },
		{"Group": "A", "Depth": 70 , "DecompTime": 0 , "Duration": 5 },
		{"Group": "A", "Depth": 80 , "DecompTime": 0 , "Duration": 4 },
		{"Group": "A", "Depth": 90 , "DecompTime": 0 , "Duration": 4 },
		{"Group": "A", "Depth": 100, "DecompTime": 3 , "Duration": 3 },
		{"Group": "A", "Depth": 110, "DecompTime": 3 , "Duration": 3 },
		{"Group": "A", "Depth": 120, "DecompTime": 3 , "Duration": 3 },
		{"Group": "A", "Depth": 130, "DecompTime": 3 , "Duration": 3 },
		{"Group": "A", "Depth": 140, "DecompTime": 3 , "Duration": 3 },
		{"Group": "B", "Depth": 35 , "DecompTime": 0 , "Duration": 19},
		{"Group": "B", "Depth": 40 , "DecompTime": 0 , "Duration": 16},
		{"Group": "B", "Depth": 50 , "DecompTime": 0 , "Duration": 13},
		{"Group": "B", "Depth": 60 , "DecompTime": 0 , "Duration": 11},
		{"Group": "B", "Depth": 70 , "DecompTime": 0 , "Duration": 9 },
		{"Group": "B", "Depth": 80 , "DecompTime": 0 , "Duration": 8 },
		{"Group": "B", "Depth": 90 , "DecompTime": 0 , "Duration": 7 },
		{"Group": "B", "Depth": 100, "DecompTime": 3 , "Duration": 6 },
		{"Group": "B", "Depth": 110, "DecompTime": 3 , "Duration": 6 },
		{"Group": "B", "Depth": 120, "DecompTime": 3 , "Duration": 5 },
		{"Group": "B", "Depth": 130, "DecompTime": 3 , "Duration": 5 },
		{"Group": "B", "Depth": 140, "DecompTime": 3 , "Duration": 4 },
		{"Group": "C", "Depth": 35 , "DecompTime": 0 , "Duration": 25},
		{"Group": "C", "Depth": 40 , "DecompTime": 0 , "Duration": 22},
		{"Group": "C", "Depth": 50 , "DecompTime": 0 , "Duration": 17},
		{"Group": "C", "Depth": 60 , "DecompTime": 0 , "Duration": 14},
		{"Group": "C", "Depth": 70 , "DecompTime": 0 , "Duration": 12},
		{"Group": "C", "Depth": 80 , "DecompTime": 0 , "Duration": 10},
		{"Group": "C", "Depth": 90 , "DecompTime": 0 , "Duration": 9 },
		{"Group": "C", "Depth": 100, "DecompTime": 3 , "Duration": 8 },
		{"Group": "C", "Depth": 110, "DecompTime": 3 , "Duration": 7 },
		{"Group": "C", "Depth": 120, "DecompTime": 3 , "Duration": 6 },
		{"Group": "C", "Depth": 130, "DecompTime": 3 , "Duration": 6 },
		{"Group": "C", "Depth": 140, "DecompTime": 3 , "Duration": 5 },
		{"Group": "D", "Depth": 35 , "DecompTime": 0 , "Duration": 29},
		{"Group": "D", "Depth": 40 , "DecompTime": 0 , "Duration": 25},
		{"Group": "D", "Depth": 50 , "DecompTime": 0 , "Duration": 19},
		{"Group": "D", "Depth": 60 , "DecompTime": 0 , "Duration": 16},
		{"Group": "D", "Depth": 70 , "DecompTime": 0 , "Duration": 13},
		{"Group": "D", "Depth": 80 , "DecompTime": 0 , "Duration": 11},
		{"Group": "D", "Depth": 90 , "DecompTime": 0 , "Duration": 10},
		{"Group": "D", "Depth": 100, "DecompTime": 3 , "Duration": 9 },
		{"Group": "D", "Depth": 110, "DecompTime": 3 , "Duration": 8 },
		{"Group": "D", "Depth": 120, "DecompTime": 3 , "Duration": 7 },
		{"Group": "D", "Depth": 130, "DecompTime": 3 , "Duration": 7 },
		{"Group": "D", "Depth": 140, "DecompTime": 3 , "Duration": 6 },
		{"Group": "E", "Depth": 35 , "DecompTime": 0 , "Duration": 32},
		{"Group": "E", "Depth": 40 , "DecompTime": 0 , "Duration": 27},
		{"Group": "E", "Depth": 50 , "DecompTime": 0 , "Duration": 21},
		{"Group": "E", "Depth": 60 , "DecompTime": 0 , "Duration": 17},
		{"Group": "E", "Depth": 70 , "DecompTime": 0 , "Duration": 15},
		{"Group": "E", "Depth": 80 , "DecompTime": 0 , "Duration": 13},
		{"Group": "E", "Depth": 90 , "DecompTime": 0 , "Duration": 11},
		{"Group": "E", "Depth": 100, "DecompTime": 3 , "Duration": 10},
		{"Group": "E", "Depth": 110, "DecompTime": 3 , "Duration": 9 },
		{"Group": "E", "Depth": 120, "DecompTime": 3 , "Duration": 8 },
		{"Group": "E", "Depth": 130, "DecompTime": 3 , "Duration": 8 },
		{"Group": "E", "Depth": 140, "DecompTime": 3 , "Duration": 7 },
		{"Group": "F", "Depth": 35 , "DecompTime": 0 , "Duration": 36},
		{"Group": "F", "Depth": 40 , "DecompTime": 0 , "Duration": 31},
		{"Group": "F", "Depth": 50 , "DecompTime": 0 , "Duration": 24},
		{"Group": "F", "Depth": 60 , "DecompTime": 0 , "Duration": 19},
		{"Group": "F", "Depth": 70 , "DecompTime": 0 , "Duration": 16},
		{"Group": "F", "Depth": 80 , "DecompTime": 0 , "Duration": 14},
		{"Group": "F", "Depth": 90 , "DecompTime": 0 , "Duration": 12},
		{"Group": "F", "Depth": 100, "DecompTime": 3 , "Duration": 11},
		{"Group": "F", "Depth": 110, "DecompTime": 3 , "Duration": 10},
		{"Group": "F", "Depth": 120, "DecompTime": 3 , "Duration": 9 },
		{"Group": "F", "Depth": 130, "DecompTime": 3 , "Duration": 8 },
		{"Group": "F", "Depth": 140, "DecompTime": 15, "Duration": 8 },
		{"Group": "G", "Depth": 35 , "DecompTime": 0 , "Duration": 40},
		{"Group": "G", "Depth": 40 , "DecompTime": 0 , "Duration": 34},
		{"Group": "G", "Depth": 50 , "DecompTime": 0 , "Duration": 26},
		{"Group": "G", "Depth": 60 , "DecompTime": 0 , "Duration": 21},
		{"Group": "G", "Depth": 70 , "DecompTime": 0 , "Duration": 18},
		{"Group": "G", "Depth": 80 , "DecompTime": 0 , "Duration": 15},
		{"Group": "G", "Depth": 90 , "DecompTime": 0 , "Duration": 13},
		{"Group": "G", "Depth": 100, "DecompTime": 3 , "Duration": 12},
		{"Group": "G", "Depth": 110, "DecompTime": 3 , "Duration": 11},
		{"Group": "G", "Depth": 120, "DecompTime": 3 , "Duration": 10},
		{"Group": "G", "Depth": 130, "DecompTime": 3 , "Duration": 9 },
		{"Group": "G", "Depth": 140, "DecompTime": 15, "Duration": "Infinity" },
		{"Group": "H", "Depth": 35 , "DecompTime": 0 , "Duration": 44},
		{"Group": "H", "Depth": 40 , "DecompTime": 0 , "Duration": 37},
		{"Group": "H", "Depth": 50 , "DecompTime": 0 , "Duration": 28},
		{"Group": "H", "Depth": 60 , "DecompTime": 0 , "Duration": 23},
		{"Group": "H", "Depth": 70 , "DecompTime": 0 , "Duration": 19},
		{"Group": "H", "Depth": 80 , "DecompTime": 0 , "Duration": 17},
		{"Group": "H", "Depth": 90 , "DecompTime": 0 , "Duration": 15},
		{"Group": "H", "Depth": 100, "DecompTime": 3 , "Duration": 13},
		{"Group": "H", "Depth": 110, "DecompTime": 3 , "Duration": 12},
		{"Group": "H", "Depth": 120, "DecompTime": 3 , "Duration": 11},
		{"Group": "H", "Depth": 130, "DecompTime": 15, "Duration": 10},
		{"Group": "H", "Depth": 140, "DecompTime": 15, "Duration": "Infinity" },
		{"Group": "I", "Depth": 35 , "DecompTime": 0 , "Duration": 48},
		{"Group": "I", "Depth": 40 , "DecompTime": 0 , "Duration": 40},
		{"Group": "I", "Depth": 50 , "DecompTime": 0 , "Duration": 31},
		{"Group": "I", "Depth": 60 , "DecompTime": 0 , "Duration": 25},
		{"Group": "I", "Depth": 70 , "DecompTime": 0 , "Duration": 21},
		{"Group": "I", "Depth": 80 , "DecompTime": 0 , "Duration": 18},
		{"Group": "I", "Depth": 90 , "DecompTime": 0 , "Duration": 16},
		{"Group": "I", "Depth": 100, "DecompTime": 3 , "Duration": 14},
		{"Group": "I", "Depth": 110, "DecompTime": 3 , "Duration": 13},
		{"Group": "I", "Depth": 120, "DecompTime": 3 , "Duration": 13},
		{"Group": "I", "Depth": 130, "DecompTime": 15, "Duration": "Infinity" },
		{"Group": "I", "Depth": 140, "DecompTime": 15, "Duration": "Infinity" },
		{"Group": "J", "Depth": 35 , "DecompTime": 0 , "Duration": 52},
		{"Group": "J", "Depth": 40 , "DecompTime": 0 , "Duration": 44},
		{"Group": "J", "Depth": 50 , "DecompTime": 0 , "Duration": 33},
		{"Group": "J", "Depth": 60 , "DecompTime": 0 , "Duration": 27},
		{"Group": "J", "Depth": 70 , "DecompTime": 0 , "Duration": 22},
		{"Group": "J", "Depth": 80 , "DecompTime": 0 , "Duration": 19},
		{"Group": "J", "Depth": 90 , "DecompTime": 0 , "Duration": 17},
		{"Group": "J", "Depth": 100, "DecompTime": 3 , "Duration": 15},
		{"Group": "J", "Depth": 110, "DecompTime": 3 , "Duration": 15},
		{"Group": "J", "Depth": 120, "DecompTime": 3 , "Duration": 12},
		{"Group": "J", "Depth": 130, "DecompTime": 15, "Duration": "Infinity" },
		{"Group": "J", "Depth": 140, "DecompTime": 15, "Duration": "Infinity" },
		{"Group": "K", "Depth": 35 , "DecompTime": 0 , "Duration": 57},
		{"Group": "K", "Depth": 40 , "DecompTime": 0 , "Duration": 48},
		{"Group": "K", "Depth": 50 , "DecompTime": 0 , "Duration": 36},
		{"Group": "K", "Depth": 60 , "DecompTime": 0 , "Duration": 29},
		{"Group": "K", "Depth": 70 , "DecompTime": 0 , "Duration": 24},
		{"Group": "K", "Depth": 80 , "DecompTime": 0 , "Duration": 21},
		{"Group": "K", "Depth": 90 , "DecompTime": 0 , "Duration": 18},
		{"Group": "K", "Depth": 100, "DecompTime": 3 , "Duration": 16},
		{"Group": "K", "Depth": 110, "DecompTime": 3 , "Duration": 14},
		{"Group": "K", "Depth": 120, "DecompTime": 15, "Duration": 13},
		{"Group": "K", "Depth": 130, "DecompTime": 15, "Duration": "Infinity" },
		{"Group": "K", "Depth": 140, "DecompTime": 15, "Duration": "Infinity" },
		{"Group": "L", "Depth": 35 , "DecompTime": 0 , "Duration": 62},
		{"Group": "L", "Depth": 40 , "DecompTime": 0 , "Duration": 51},
		{"Group": "L", "Depth": 50 , "DecompTime": 0 , "Duration": 39},
		{"Group": "L", "Depth": 60 , "DecompTime": 0 , "Duration": 31},
		{"Group": "L", "Depth": 70 , "DecompTime": 0 , "Duration": 26},
		{"Group": "L", "Depth": 80 , "DecompTime": 0 , "Duration": 22},
		{"Group": "L", "Depth": 90 , "DecompTime": 0 , "Duration": 19},
		{"Group": "L", "Depth": 100, "DecompTime": 3 , "Duration": 17},
		{"Group": "L", "Depth": 110, "DecompTime": 3 , "Duration": 15},
		{"Group": "L", "Depth": 120, "DecompTime": 15, "Duration": "Infinity" },
		{"Group": "L", "Depth": 130, "DecompTime": 15, "Duration": "Infinity" },
		{"Group": "L", "Depth": 140, "DecompTime": 15, "Duration": "Infinity" },
		{"Group": "M", "Depth": 35 , "DecompTime": 0 , "Duration": 67},
		{"Group": "M", "Depth": 40 , "DecompTime": 0 , "Duration": 55},
		{"Group": "M", "Depth": 50 , "DecompTime": 0 , "Duration": 41},
		{"Group": "M", "Depth": 60 , "DecompTime": 0 , "Duration": 33},
		{"Group": "M", "Depth": 70 , "DecompTime": 0 , "Duration": 27},
		{"Group": "M", "Depth": 80 , "DecompTime": 0 , "Duration": 23},
		{"Group": "M", "Depth": 90 , "DecompTime": 0 , "Duration": 21},
		{"Group": "M", "Depth": 100, "DecompTime": 3 , "Duration": 18},
		{"Group": "M", "Depth": 110, "DecompTime": 15, "Duration": 16},
		{"Group": "M", "Depth": 120, "DecompTime": 15, "Duration": "Infinity" },
		{"Group": "M", "Depth": 130, "DecompTime": 15, "Duration": "Infinity" },
		{"Group": "M", "Depth": 140, "DecompTime": 15, "Duration": "Infinity" },
		{"Group": "N", "Depth": 35 , "DecompTime": 0 , "Duration": 73},
		{"Group": "N", "Depth": 40 , "DecompTime": 0 , "Duration": 60},
		{"Group": "N", "Depth": 50 , "DecompTime": 0 , "Duration": 44},
		{"Group": "N", "Depth": 60 , "DecompTime": 0 , "Duration": 35},
		{"Group": "N", "Depth": 70 , "DecompTime": 0 , "Duration": 29},
		{"Group": "N", "Depth": 80 , "DecompTime": 0 , "Duration": 25},
		{"Group": "N", "Depth": 90 , "DecompTime": 3 , "Duration": 22},
		{"Group": "N", "Depth": 100, "DecompTime": 3 , "Duration": 19},
		{"Group": "N", "Depth": 110, "DecompTime": 15, "Duration": "Infinity" },
		{"Group": "N", "Depth": 120, "DecompTime": 15, "Duration": "Infinity" },
		{"Group": "N", "Depth": 130, "DecompTime": 15, "Duration": "Infinity" },
		{"Group": "N", "Depth": 140, "DecompTime": 15, "Duration": "Infinity" },
		{"Group": "O", "Depth": 35 , "DecompTime": 0 , "Duration": 79},
		{"Group": "O", "Depth": 40 , "DecompTime": 0 , "Duration": 64},
		{"Group": "O", "Depth": 50 , "DecompTime": 0 , "Duration": 47},
		{"Group": "O", "Depth": 60 , "DecompTime": 0 , "Duration": 37},
		{"Group": "O", "Depth": 70 , "DecompTime": 0 , "Duration": 31},
		{"Group": "O", "Depth": 80 , "DecompTime": 3 , "Duration": 26},
		{"Group": "O", "Depth": 90 , "DecompTime": 3 , "Duration": 23},
		{"Group": "O", "Depth": 100, "DecompTime": 15, "Duration": 20},
		{"Group": "O", "Depth": 110, "DecompTime": 15, "Duration": "Infinity" },
		{"Group": "O", "Depth": 120, "DecompTime": 15, "Duration": "Infinity" },
		{"Group": "O", "Depth": 130, "DecompTime": 15, "Duration": "Infinity" },
		{"Group": "O", "Depth": 140, "DecompTime": 15, "Duration": "Infinity" },
		{"Group": "P", "Depth": 35 , "DecompTime": 0 , "Duration": 85},
		{"Group": "P", "Depth": 40 , "DecompTime": 0 , "Duration": 69},
		{"Group": "P", "Depth": 50 , "DecompTime": 0 , "Duration": 50},
		{"Group": "P", "Depth": 60 , "DecompTime": 0 , "Duration": 39},
		{"Group": "P", "Depth": 70 , "DecompTime": 0 , "Duration": 33},
		{"Group": "P", "Depth": 80 , "DecompTime": 3 , "Duration": 28},
		{"Group": "P", "Depth": 90 , "DecompTime": 3 , "Duration": 24},
		{"Group": "P", "Depth": 100, "DecompTime": 15, "Duration": "Infinity" },
		{"Group": "P", "Depth": 110, "DecompTime": 15, "Duration": "Infinity" },
		{"Group": "P", "Depth": 120, "DecompTime": 15, "Duration": "Infinity" },
		{"Group": "P", "Depth": 130, "DecompTime": 15, "Duration": "Infinity" },
		{"Group": "P", "Depth": 140, "DecompTime": 15, "Duration": "Infinity" },
		{"Group": "Q", "Depth": 35 , "DecompTime": 0 , "Duration": 92},
		{"Group": "Q", "Depth": 40 , "DecompTime": 0 , "Duration": 74},
		{"Group": "Q", "Depth": 50 , "DecompTime": 0 , "Duration": 53},
		{"Group": "Q", "Depth": 60 , "DecompTime": 0 , "Duration": 42},
		{"Group": "Q", "Depth": 70 , "DecompTime": 3 , "Duration": 35},
		{"Group": "Q", "Depth": 80 , "DecompTime": 3 , "Duration": 29},
		{"Group": "Q", "Depth": 90 , "DecompTime": 15, "Duration": 25},
		{"Group": "Q", "Depth": 100, "DecompTime": 15, "Duration": "Infinity" },
		{"Group": "Q", "Depth": 110, "DecompTime": 15, "Duration": "Infinity" },
		{"Group": "Q", "Depth": 120, "DecompTime": 15, "Duration": "Infinity" },
		{"Group": "Q", "Depth": 130, "DecompTime": 15, "Duration": "Infinity" },
		{"Group": "Q", "Depth": 140, "DecompTime": 15, "Duration": "Infinity" },
		{"Group": "R", "Depth": 35 , "DecompTime": 0 , "Duration": 100},
		{"Group": "R", "Depth": 40 , "DecompTime": 0 , "Duration": 79},
		{"Group": "R", "Depth": 50 , "DecompTime": 0 , "Duration": 57},
		{"Group": "R", "Depth": 60 , "DecompTime": 0 , "Duration": 44},
		{"Group": "R", "Depth": 70 , "DecompTime": 3 , "Duration": 36},
		{"Group": "R", "Depth": 80 , "DecompTime": 15, "Duration": 30},
		{"Group": "R", "Depth": 90 , "DecompTime": 15, "Duration": "Infinity" },
		{"Group": "R", "Depth": 100, "DecompTime": 15, "Duration": "Infinity" },
		{"Group": "R", "Depth": 110, "DecompTime": 15, "Duration": "Infinity" },
		{"Group": "R", "Depth": 120, "DecompTime": 15, "Duration": "Infinity" },
		{"Group": "R", "Depth": 130, "DecompTime": 15, "Duration": "Infinity" },
		{"Group": "R", "Depth": 140, "DecompTime": 15, "Duration": "Infinity" },
		{"Group": "S", "Depth": 35 , "DecompTime": 0 , "Duration": 108},
		{"Group": "S", "Depth": 40 , "DecompTime": 0 , "Duration": 85},
		{"Group": "S", "Depth": 50 , "DecompTime": 0 , "Duration": 60},
		{"Group": "S", "Depth": 60 , "DecompTime": 0 , "Duration": 47},
		{"Group": "S", "Depth": 70 , "DecompTime": 3 , "Duration": 38},
		{"Group": "S", "Depth": 80 , "DecompTime": 15, "Duration": "Infinity" },
		{"Group": "S", "Depth": 90 , "DecompTime": 15, "Duration": "Infinity" },
		{"Group": "S", "Depth": 100, "DecompTime": 15, "Duration": "Infinity" },
		{"Group": "S", "Depth": 110, "DecompTime": 15, "Duration": "Infinity" },
		{"Group": "S", "Depth": 120, "DecompTime": 15, "Duration": "Infinity" },
		{"Group": "S", "Depth": 130, "DecompTime": 15, "Duration": "Infinity" },
		{"Group": "S", "Depth": 140, "DecompTime": 15, "Duration": "Infinity" },
		{"Group": "T", "Depth": 35 , "DecompTime": 0 , "Duration": 117},
		{"Group": "T", "Depth": 40 , "DecompTime": 0 , "Duration": 91},
		{"Group": "T", "Depth": 50 , "DecompTime": 0 , "Duration": 63},
		{"Group": "T", "Depth": 60 , "DecompTime": 3 , "Duration": 49},
		{"Group": "T", "Depth": 70 , "DecompTime": 15, "Duration": 40},
		{"Group": "T", "Depth": 80 , "DecompTime": 15, "Duration": "Infinity" },
		{"Group": "T", "Depth": 90 , "DecompTime": 15, "Duration": "Infinity" },
		{"Group": "T", "Depth": 100, "DecompTime": 15, "Duration": "Infinity" },
		{"Group": "T", "Depth": 110, "DecompTime": 15, "Duration": "Infinity" },
		{"Group": "T", "Depth": 120, "DecompTime": 15, "Duration": "Infinity" },
		{"Group": "T", "Depth": 130, "DecompTime": 15, "Duration": "Infinity" },
		{"Group": "T", "Depth": 140, "DecompTime": 15, "Duration": "Infinity" },
		{"Group": "U", "Depth": 35 , "DecompTime": 0 , "Duration": 127},
		{"Group": "U", "Depth": 40 , "DecompTime": 0 , "Duration": 97},
		{"Group": "U", "Depth": 50 , "DecompTime": 3 , "Duration": 67},
		{"Group": "U", "Depth": 60 , "DecompTime": 3 , "Duration": 52},
		{"Group": "U", "Depth": 70 , "DecompTime": 15, "Duration": "Infinity" },
		{"Group": "U", "Depth": 80 , "DecompTime": 15, "Duration": "Infinity" },
		{"Group": "U", "Depth": 90 , "DecompTime": 15, "Duration": "Infinity" },
		{"Group": "U", "Depth": 100, "DecompTime": 15, "Duration": "Infinity" },
		{"Group": "U", "Depth": 110, "DecompTime": 15, "Duration": "Infinity" },
		{"Group": "U", "Depth": 120, "DecompTime": 15, "Duration": "Infinity" },
		{"Group": "U", "Depth": 130, "DecompTime": 15, "Duration": "Infinity" },
		{"Group": "U", "Depth": 140, "DecompTime": 15, "Duration": "Infinity" },
		{"Group": "V", "Depth": 35 , "DecompTime": 0 , "Duration": 139},
		{"Group": "V", "Depth": 40 , "DecompTime": 0 , "Duration": 104},
		{"Group": "V", "Depth": 50 , "DecompTime": 3 , "Duration": 71},
		{"Group": "V", "Depth": 60 , "DecompTime": 3 , "Duration": 54},
		{"Group": "V", "Depth": 70 , "DecompTime": 15, "Duration": "Infinity" },
		{"Group": "V", "Depth": 80 , "DecompTime": 15, "Duration": "Infinity" },
		{"Group": "V", "Depth": 90 , "DecompTime": 15, "Duration": "Infinity" },
		{"Group": "V", "Depth": 100, "DecompTime": 15, "Duration": "Infinity" },
		{"Group": "V", "Depth": 110, "DecompTime": 15, "Duration": "Infinity" },
		{"Group": "V", "Depth": 120, "DecompTime": 15, "Duration": "Infinity" },
		{"Group": "V", "Depth": 130, "DecompTime": 15, "Duration": "Infinity" },
		{"Group": "V", "Depth": 140, "DecompTime": 15, "Duration": "Infinity" },
		{"Group": "W", "Depth": 35 , "DecompTime": 3 , "Duration": 152},
		{"Group": "W", "Depth": 40 , "DecompTime": 3 , "Duration": 111},
		{"Group": "W", "Depth": 50 , "DecompTime": 3 , "Duration": 75},
		{"Group": "W", "Depth": 60 , "DecompTime": 15, "Duration": 55},
		{"Group": "W", "Depth": 70 , "DecompTime": 15, "Duration": "Infinity" },
		{"Group": "W", "Depth": 80 , "DecompTime": 15, "Duration": "Infinity" },
		{"Group": "W", "Depth": 90 , "DecompTime": 15, "Duration": "Infinity" },
		{"Group": "W", "Depth": 100, "DecompTime": 15, "Duration": "Infinity" },
		{"Group": "W", "Depth": 110, "DecompTime": 15, "Duration": "Infinity" },
		{"Group": "W", "Depth": 120, "DecompTime": 15, "Duration": "Infinity" },
		{"Group": "W", "Depth": 130, "DecompTime": 15, "Duration": "Infinity" },
		{"Group": "W", "Depth": 140, "DecompTime": 15, "Duration": "Infinity" },
		{"Group": "X", "Depth": 35 , "DecompTime": 3 , "Duration": 168},
		{"Group": "X", "Depth": 40 , "DecompTime": 3 , "Duration": 120},
		{"Group": "X", "Depth": 50 , "DecompTime": 15, "Duration": 80},
		{"Group": "X", "Depth": 60 , "DecompTime": 15, "Duration": "Infinity" },
		{"Group": "X", "Depth": 70 , "DecompTime": 15, "Duration": "Infinity" },
		{"Group": "X", "Depth": 80 , "DecompTime": 15, "Duration": "Infinity" },
		{"Group": "X", "Depth": 90 , "DecompTime": 15, "Duration": "Infinity" },
		{"Group": "X", "Depth": 100, "DecompTime": 15, "Duration": "Infinity" },
		{"Group": "X", "Depth": 110, "DecompTime": 15, "Duration": "Infinity" },
		{"Group": "X", "Depth": 120, "DecompTime": 15, "Duration": "Infinity" },
		{"Group": "X", "Depth": 130, "DecompTime": 15, "Duration": "Infinity" },
		{"Group": "X", "Depth": 140, "DecompTime": 15, "Duration": "Infinity" },
		{"Group": "Y", "Depth": 35 , "DecompTime": 3 , "Duration": 188},
		{"Group": "Y", "Depth": 40 , "DecompTime": 3 , "Duration": 129},
		{"Group": "Y", "Depth": 50 , "DecompTime": 15, "Duration": "Infinity" },
		{"Group": "Y", "Depth": 60 , "DecompTime": 15, "Duration": "Infinity" },
		{"Group": "Y", "Depth": 70 , "DecompTime": 15, "Duration": "Infinity" },
		{"Group": "Y", "Depth": 80 , "DecompTime": 15, "Duration": "Infinity" },
		{"Group": "Y", "Depth": 90 , "DecompTime": 15, "Duration": "Infinity" },
		{"Group": "Y", "Depth": 100, "DecompTime": 15, "Duration": "Infinity" },
		{"Group": "Y", "Depth": 110, "DecompTime": 15, "Duration": "Infinity" },
		{"Group": "Y", "Depth": 120, "DecompTime": 15, "Duration": "Infinity" },
		{"Group": "Y", "Depth": 130, "DecompTime": 15, "Duration": "Infinity" },
		{"Group": "Y", "Depth": 140, "DecompTime": 15 , "Duration": "Infinity" },
		{"Group": "Z", "Depth": 35 , "DecompTime": 15, "Duration": 205},
		{"Group": "Z", "Depth": 40 , "DecompTime": 15, "Duration": 140},
		{"Group": "Z", "Depth": 50 , "DecompTime": 15, "Duration": "Infinity" },
		{"Group": "Z", "Depth": 60 , "DecompTime": 15, "Duration": "Infinity" },
		{"Group": "Z", "Depth": 70 , "DecompTime": 15, "Duration": "Infinity" },
		{"Group": "Z", "Depth": 80 , "DecompTime": 15, "Duration": "Infinity" },
		{"Group": "Z", "Depth": 90 , "DecompTime": 15, "Duration": "Infinity" },
		{"Group": "Z", "Depth": 100, "DecompTime": 15, "Duration": "Infinity" },
		{"Group": "Z", "Depth": 110, "DecompTime": 15, "Duration": "Infinity" },
		{"Group": "Z", "Depth": 120, "DecompTime": 15, "Duration": "Infinity" },
		{"Group": "Z", "Depth": 130, "DecompTime": 15, "Duration": "Infinity" },
		{"Group": "Z", "Depth": 140, "DecompTime": 15, "Duration": "Infinity" }
]
